module github.com/streamnative/function-mesh

go 1.13

require (
	github.com/ghodss/yaml v1.0.0
	github.com/go-logr/logr v0.1.0
	github.com/gogo/protobuf v1.3.2
	github.com/golang/protobuf v1.4.3
	github.com/onsi/ginkgo v1.14.2
	github.com/onsi/gomega v1.10.4
	github.com/prometheus/client_golang v1.7.1 // indirect
	github.com/streamnative/pulsarctl v0.4.3-0.20220104092115-5af28d815290
	github.com/stretchr/testify v1.6.1
	google.golang.org/protobuf v1.25.0
	k8s.io/api v0.18.6
	k8s.io/apimachinery v0.18.6
	k8s.io/client-go v0.18.6
	sigs.k8s.io/controller-runtime v0.6.2
)
